…
``` r
output = vector("list", length = 500)

for (i in 1:500) {
  
  output[[i]] = sim_regression(n_subj = 30)
  
}

output |> 
  bind_rows()
```

    ## # A tibble: 500 × 2
    ##    beta0_hat beta1_hat
    ##        <dbl>     <dbl>
    ##  1      2.72      2.57
    ##  2      2.80      2.46
    ##  3      2.23      2.84
    ##  4      2.21      2.84
    ##  5      1.55      3.25
    ##  6      2.23      2.64
    ##  7      2.01      3.12
    ##  8      1.84      3.45
    ##  9      1.19      3.45
    ## 10      2.24      2.95
    ## # ℹ 490 more rows
…
